{
    "Oficina1": [
        {
            "Fecha": "Wed Jul  3 10:16:02 2019",
            "Temp": "4",
            "Humedad": "95"
        },
        {
            "Fecha": "Wed Jul  3 10:16:16 2019",
            "Temp": "2",
            "Humedad": "90"
        },
        {
            "Fecha": "Wed Jul  3 10:17:09 2019",
            "Temp": "10",
            "Humedad": "88"
        }
    ],
    "Oficina2": [
        {
            "Fecha": "Wed Jul  3 10:27:11 2019",
            "Temp": "5",
            "Humedad": "95"
        },
        {
            "Fecha": "Wed Jul  3 10:27:30 2019",
            "Temp": "6",
            "Humedad": "80"
        }
    ],
    "Oficina3": [
        {
            "Fecha": "Wed Jul  3 10:50:56 2019",
            "Temp": "25",
            "Humedad": "50"
        },
        {
            "Fecha": "Wed Jul  3 10:51:15 2019",
            "Temp": "23",
            "Humedad": "51"
        },
        {
            "Fecha": "Wed Jul  3 10:58:12 2019",
            "Temp": "30",
            "Humedad": "45"
        },
        {
            "Fecha": "Wed Jul  3 10:58:29 2019",
            "Temp": "28",
            "Humedad": "48"
        }
    ]
}